<svg width="893" height="594" viewBox="0 0 893 594" fill="none" xmlns="http://www.w3.org/2000/svg">
<rect width="893" height="593.954" transform="translate(0 0.0463867)" fill="#6C63FF"/>
<g clip-path="url(#clip0)">
<path d="M331.229 517.684L329.007 546.576L350.49 548.798L345.305 513.98L331.229 517.684Z" fill="#FFB9B9"/>
<path d="M282.491 45.9668H224.554V151.852H282.491V45.9668Z" fill="#F2F2F2"/>
<path d="M474.283 394.921H396.367V500.806H474.283V394.921Z" fill="#F2F2F2"/>
<path d="M397.033 231.766H319.784V348.306H397.033V231.766Z" fill="#F2F2F2"/>
<path d="M474.283 79.9302H397.033V196.47H474.283V79.9302Z" fill="#F2F2F2"/>
<path d="M782.381 577.195H68.6097V578.855H782.381V577.195Z" fill="#2F2E41"/>
<path d="M569.587 501.547H223.813V45.2266H569.587V501.547ZM225.295 500.066H568.106V46.7082H225.295V500.066Z" fill="#3F3D56"/>
<path d="M497 501.547H297.067V45.8926H497V501.547ZM298.549 500.066H495.518V47.3742H298.549V500.066Z" fill="#3F3D56"/>
<path d="M569.587 349.046H223.813V195.729H569.587V349.046ZM225.295 347.564H568.106V197.211H225.295V347.564Z" fill="#3F3D56"/>
<path d="M297.808 218.446C309.945 218.446 319.784 208.607 319.784 196.47C319.784 184.333 309.945 174.494 297.808 174.494C285.671 174.494 275.832 184.333 275.832 196.47C275.832 208.607 285.671 218.446 297.808 218.446Z" fill="#F9A826"/>
<path d="M496.259 70.607C508.396 70.607 518.235 60.768 518.235 48.6309C518.235 36.4938 508.396 26.6548 496.259 26.6548C484.122 26.6548 474.283 36.4938 474.283 48.6309C474.283 60.768 484.122 70.607 496.259 70.607Z" fill="#F9A826"/>
<path d="M397.441 46.6333H395.959V500.806H397.441V46.6333Z" fill="#3F3D56"/>
<path d="M647.119 513.03C658.34 546.8 654.399 578.509 654.399 578.509C654.399 578.509 632.265 555.464 621.044 521.694C609.823 487.924 613.764 456.215 613.764 456.215C613.764 456.215 635.898 479.26 647.119 513.03Z" fill="#F9A826"/>
<path d="M661.679 513.03C650.458 546.8 654.399 578.509 654.399 578.509C654.399 578.509 676.533 555.464 687.754 521.694C698.975 487.924 695.034 456.215 695.034 456.215C695.034 456.215 672.9 479.26 661.679 513.03Z" fill="#F9A826"/>
<path d="M666.199 513.395C666.951 548.973 653.825 578.105 653.825 578.105C653.825 578.105 639.481 549.554 638.729 513.976C637.976 478.398 651.102 449.266 651.102 449.266C651.102 449.266 665.447 477.817 666.199 513.395Z" fill="#3F3D56"/>
<path d="M256.38 254.586H256.38C274.692 260.229 284.46 281.278 278.197 301.6L270.241 327.42L262.3 324.973L260.65 313.99L258.852 323.91L207.81 308.182L206.311 298.197L204.676 307.216L198.929 305.445L205.176 285.172C212.383 261.786 235.307 248.092 256.38 254.586Z" fill="#2F2E41"/>
<path d="M227.939 332.082C226.283 331.807 224.589 331.882 222.964 332.301C221.339 332.721 219.821 333.476 218.505 334.517C217.19 335.559 216.107 336.865 215.326 338.35C214.546 339.835 214.085 341.468 213.973 343.142C213.653 347.618 215.198 352.859 222.138 356.74C236.96 365.03 269.102 383.102 269.102 383.102L330.428 394.88C330.428 394.88 361.419 419.608 365.301 405.543C369.184 391.478 335.895 382.891 335.895 382.891L279.555 368.442L243.654 342.475C243.654 342.475 237.076 333.694 227.939 332.082Z" fill="#FFB9B9"/>
<path d="M208.337 389.702L214.501 407.073L251.486 398.108L241.959 385.219L208.337 389.702Z" fill="#FFB9B9"/>
<path d="M109.432 553.049L81.4141 550.248L101.027 531.195L115.036 540.721L109.432 553.049Z" fill="#FFB9B9"/>
<path d="M249.902 312.722C262.611 312.722 272.914 302.42 272.914 289.711C272.914 277.002 262.611 266.699 249.902 266.699C237.193 266.699 226.891 277.002 226.891 289.711C226.891 302.42 237.193 312.722 249.902 312.722Z" fill="#FFB9B9"/>
<path d="M231.873 293.319C231.873 293.319 218.984 308.449 212.26 310.69C205.535 312.932 188.724 334.226 197.13 348.235C205.535 362.244 236.356 344.873 236.356 344.873L235.235 330.863C235.235 330.863 248.123 308.449 250.925 306.768C253.727 305.087 231.873 293.319 231.873 293.319Z" fill="#FFB9B9"/>
<path d="M229.632 320.374C221.064 307.474 201.19 309.782 196.261 324.462C196.173 324.724 196.089 324.989 196.009 325.26C191.526 340.39 198.25 366.166 198.25 366.166L208.337 396.426C208.337 396.426 234.674 384.098 253.727 404.832L250.925 383.538C250.925 383.538 258.77 365.606 248.684 352.718C242.264 344.515 236.299 330.412 229.632 320.374Z" fill="#575A89"/>
<path d="M254.007 406.233C254.007 406.233 240.558 388.301 213.1 398.948L208.057 412.957C208.057 412.957 178.918 435.932 195.169 471.236L194.048 523.91L189.565 539.04L108.312 532.316L105.51 558.093L120.079 559.213C120.079 559.213 202.453 591.715 215.342 571.541C228.23 551.368 255.128 471.796 255.128 471.796L324.898 482.243C324.898 482.243 322.856 504.079 325.098 506.881C327.339 509.682 326.218 521.45 327.339 523.692C328.46 525.933 327.526 531.76 327.526 531.76L350.675 530.995V519.788C350.675 519.788 353.477 504.658 353.477 500.736C353.477 496.813 370.288 445.259 341.149 440.776C312.01 436.293 261.852 428.087 261.852 428.087L254.007 406.233Z" fill="#2F2E41"/>
<path d="M97.1042 549.126L95.9835 557.532C95.9835 557.532 58.9993 550.247 51.1541 556.972C43.309 563.696 43.309 568.179 37.1449 563.696C34.5252 561.791 36.7639 557.153 40.2045 552.449C45.6533 545.068 52.814 539.123 61.0701 535.124C70.3183 530.596 83.0951 524.017 83.0951 522.229C83.0951 519.427 93.1817 511.021 97.1042 515.504C101.027 519.987 108.312 532.315 108.312 532.315L97.1042 549.126Z" fill="#2F2E41"/>
<path d="M327.77 533.241C327.77 533.241 319.557 562.363 322.543 563.856C325.53 565.35 331.504 569.83 340.464 569.83C345.759 569.83 353.661 572.698 359.24 575.044C365.745 577.823 372.81 579.038 379.869 578.593C384.573 578.269 388.571 577.166 388.254 574.31C387.507 567.59 373.32 566.096 373.32 566.096L358.385 546.682C358.385 546.682 355.772 534.361 353.532 534.361C352.311 534.419 351.113 534.02 350.172 533.241L327.77 533.241Z" fill="#2F2E41"/>
<path d="M227.826 318.643C227.117 316.839 226.039 315.203 224.66 313.84C223.282 312.477 221.633 311.418 219.82 310.73C218.008 310.043 216.071 309.742 214.135 309.848C212.2 309.954 210.308 310.464 208.581 311.345C203.952 313.681 199.669 318.319 199.932 327.501C200.492 347.114 201.613 389.702 201.613 389.702L226.269 457.506C226.269 457.506 220.105 502.896 236.355 498.413C252.606 493.93 241.399 455.825 241.399 455.825L222.346 391.383L226.829 340.389C226.829 340.389 231.641 328.662 227.826 318.643Z" fill="#FFB9B9"/>
<path d="M243.83 261.817C246.086 260.166 248.692 259.057 251.445 258.576C254.199 258.095 257.026 258.255 259.708 259.043L260.359 259.244C272.91 263.112 279.585 277.604 275.268 291.614V291.614L271.062 290.318L271.976 284.939L269.387 289.802L244.445 282.116L243.703 277.098L242.877 281.633L237.97 280.121C232.176 290.787 231.962 303.172 237.328 317.277L228.969 314.701L227.485 304.666L225.834 313.735L209.9 308.825L212.965 287.74C217.608 272.673 230.3 262.594 243.83 261.817Z" fill="#2F2E41"/>
<path d="M397.033 415.566C434.18 415.566 464.294 385.452 464.294 348.306C464.294 311.159 434.18 281.045 397.033 281.045C359.887 281.045 329.773 311.159 329.773 348.306C329.773 385.452 359.887 415.566 397.033 415.566Z" fill="#F9A826"/>
<path d="M794.207 191.832L793.663 190.454L665.37 241.04L542.683 100.714L694.982 40.6633L694.438 39.2852L541.647 99.5298L503.755 56.1905L510.003 53.758C505.749 53.1789 500.307 51.0021 496.364 48.8612C497.958 53.0563 499.389 58.7397 499.394 63.0329L502.64 57.1659L540.184 100.107L307.196 191.973L307.005 185.272C305.029 189.083 301.15 193.476 297.808 196.471C302.295 196.38 308.128 196.943 312.174 198.381L307.739 193.351L541.219 101.291L663.906 241.617L406.421 343.142L406.23 336.441C404.255 340.252 400.375 344.645 397.033 347.64C401.52 347.549 407.354 348.112 411.399 349.55L406.965 344.52L664.942 242.801L776.624 370.54L777.74 369.564L666.405 242.224L794.207 191.832Z" fill="#3F3D56"/>
<path d="M857.2 167.169H730.671V215.783H857.2V167.169Z" fill="#3F3D56"/>
<path d="M834.891 180.155H752.98V184.15H834.891V180.155Z" fill="#F2F2F2"/>
<path d="M834.891 189.478H752.98V193.474H834.891V189.478Z" fill="#F2F2F2"/>
<path d="M834.891 198.801H752.98V202.797H834.891V198.801Z" fill="#F2F2F2"/>
<path d="M757.975 16H631.445V64.6139H757.975V16Z" fill="#3F3D56"/>
<path d="M735.665 28.9858H653.754V32.9815H735.665V28.9858Z" fill="#F2F2F2"/>
<path d="M735.665 38.3091H653.754V42.3047H735.665V38.3091Z" fill="#F2F2F2"/>
<path d="M735.665 47.6323H653.754V51.628H735.665V47.6323Z" fill="#F2F2F2"/>
<path d="M840.552 345.642H714.022V394.255H840.552V345.642Z" fill="#3F3D56"/>
<path d="M818.242 358.628H736.331V362.624H818.242V358.628Z" fill="#F2F2F2"/>
<path d="M818.242 367.951H736.331V371.946H818.242V367.951Z" fill="#F2F2F2"/>
<path d="M818.242 377.274H736.331V381.27H818.242V377.274Z" fill="#F2F2F2"/>
</g>
<defs>
<clipPath id="clip0">
<rect width="821.2" height="562.855" fill="white" transform="translate(36 16)"/>
</clipPath>
</defs>
</svg>
