<svg width="893" height="594" viewBox="0 0 893 594" fill="none" xmlns="http://www.w3.org/2000/svg">
<rect width="893" height="593.954" transform="translate(0 0.0463867)" fill="#6C63FF"/>
<g clip-path="url(#clip0)">
<path d="M120.422 515.622C120.422 534.502 109.197 541.096 95.3526 541.096C95.0303 541.096 94.7097 541.092 94.3908 541.083C93.7496 541.069 93.1137 541.042 92.4864 540.996C79.9902 540.113 70.2817 533.18 70.2817 515.622C70.2817 497.453 93.497 474.525 95.2481 472.823L95.2516 472.821C95.3178 472.755 95.3526 472.722 95.3526 472.722C95.3526 472.722 120.422 496.74 120.422 515.622Z" fill="#3F3D56"/>
<path d="M94.4379 538.207L103.608 525.395L94.4153 539.613L94.3909 541.083C93.7497 541.069 93.1137 541.041 92.4865 540.996L93.4744 522.107L93.4674 521.961L93.4848 521.933L93.5772 520.149L84.3618 505.894L93.6051 518.811L93.6277 519.189L94.3752 504.917L86.4858 490.189L94.4711 502.41L95.2482 472.823L95.2516 472.722V472.821L95.1227 496.153L102.976 486.903L95.0896 498.162L94.8822 510.94L102.216 498.678L94.8509 512.822L94.7359 519.926L105.382 502.856L94.6958 522.405L94.4379 538.207Z" fill="#F2F2F2"/>
<path d="M438.935 406.448C432.237 382.135 395.047 364.215 366.028 359.59V347.911C366.564 347.711 367.097 347.505 367.628 347.294C367.475 344.96 367.007 342.657 366.234 340.45C378.63 335.41 389.333 326.944 397.092 316.043C405.259 307.496 411.413 297.233 415.105 286.004C418.797 274.774 419.934 262.861 418.432 251.136C416.93 239.411 412.828 228.169 406.425 218.232C400.022 208.296 391.48 199.915 381.423 193.702C384.181 191.963 386.324 189.402 387.549 186.38C388.773 183.358 389.018 180.028 388.249 176.859C387.48 173.69 385.736 170.843 383.262 168.719C380.788 166.595 377.709 165.301 374.461 165.02C377.113 158.757 377.588 151.786 375.809 145.221C374.031 138.657 370.102 132.879 364.651 128.811C359.201 124.744 352.543 122.622 345.744 122.786C338.945 122.949 332.397 125.389 327.148 129.714C331.778 127.25 336.967 126.027 342.21 126.164C347.453 126.3 352.572 127.792 357.067 130.493C361.563 133.194 365.283 137.013 367.865 141.578C370.446 146.143 371.803 151.299 371.801 156.544C371.801 156.811 371.785 157.073 371.779 157.338C371.646 152.939 370.559 148.622 368.594 144.684C366.628 140.746 363.83 137.283 360.395 134.533C356.959 131.782 352.966 129.811 348.694 128.756C344.421 127.7 339.97 127.586 335.649 128.42C331.328 129.253 327.239 131.016 323.666 133.586C320.093 136.155 317.121 139.47 314.955 143.301C312.789 147.132 311.481 151.388 311.122 155.775C310.763 160.161 311.361 164.573 312.874 168.705C310.553 169.207 308.382 170.246 306.535 171.739C304.688 173.231 303.216 175.136 302.239 177.3C301.261 179.464 300.804 181.827 300.904 184.2C301.005 186.572 301.66 188.888 302.817 190.962C291.821 196.739 282.335 205.018 275.121 215.131C267.908 225.244 263.17 236.909 261.287 249.187C259.404 261.465 260.43 274.014 264.282 285.824C268.134 297.633 274.704 308.374 283.464 317.181C290.845 327.126 300.718 334.949 312.086 339.862V359.329C282.76 363.519 244.14 381.771 237.392 406.684C231.512 428.393 225.235 452.235 222.111 466.233C248.882 485.044 305.056 496.089 340.26 496.089C373.709 496.089 428.379 486.12 454.361 468.992C451.547 453.611 445.072 428.722 438.935 406.448ZM385.308 181.869C385.308 182.146 385.297 182.42 385.282 182.693C385.086 179.26 383.731 175.995 381.439 173.431C379.147 170.868 376.053 169.157 372.663 168.58C372.958 168.081 373.238 167.574 373.505 167.059C376.858 167.827 379.852 169.71 381.995 172.401C384.139 175.091 385.307 178.429 385.308 181.869V181.869Z" fill="url(#paint0_linear)"/>
<path d="M340.203 490.773C372.698 490.773 425.811 481.088 451.054 464.447C448.319 449.504 442.029 425.324 436.067 403.685C428.475 376.126 380.556 357.021 351.97 357.021H324.424C295.75 357.021 247.762 376.237 240.265 403.914C234.552 425.005 228.453 448.168 225.419 461.767C251.427 480.042 306.001 490.773 340.203 490.773Z" fill="#F9A826"/>
<path d="M339.68 339.687C382.257 339.687 416.772 305.171 416.772 262.595C416.772 220.018 382.257 185.502 339.68 185.502C297.103 185.502 262.588 220.018 262.588 262.595C262.588 305.171 297.103 339.687 339.68 339.687Z" fill="#F55F44"/>
<path d="M318.866 316.181H359.201C360.801 316.181 362.336 316.817 363.468 317.949C364.6 319.081 365.236 320.616 365.236 322.216V363.458C365.236 366.712 364.595 369.934 363.349 372.941C362.104 375.947 360.279 378.679 357.978 380.98C355.677 383.281 352.945 385.106 349.939 386.351C346.932 387.597 343.71 388.238 340.456 388.238H337.611C334.357 388.238 331.134 387.597 328.128 386.351C325.122 385.106 322.39 383.281 320.089 380.98C317.788 378.679 315.963 375.947 314.717 372.941C313.472 369.934 312.831 366.712 312.831 363.458V322.216C312.831 321.424 312.987 320.639 313.29 319.907C313.594 319.174 314.038 318.509 314.599 317.949C315.159 317.388 315.824 316.944 316.557 316.641C317.289 316.337 318.074 316.181 318.866 316.181V316.181Z" fill="#FDA57D"/>
<path opacity="0.05" d="M341.455 351.097C350.134 351.102 358.734 349.445 366.791 346.215C366.378 339.853 363.56 333.885 358.909 329.524C354.257 325.163 348.121 322.734 341.745 322.731H339.597C333.327 322.733 327.284 325.079 322.656 329.309C318.027 333.539 315.148 339.347 314.583 345.591C323.073 349.234 332.216 351.107 341.455 351.097V351.097Z" fill="black"/>
<path d="M339.817 344.547C377.484 344.547 408.02 314.011 408.02 276.344C408.02 238.676 377.484 208.141 339.817 208.141C302.149 208.141 271.614 238.676 271.614 276.344C271.614 314.011 302.149 344.547 339.817 344.547Z" fill="#FDA57D"/>
<path d="M316.716 201.905C324.869 201.905 331.479 195.296 331.479 187.143C331.479 178.99 324.869 172.38 316.716 172.38C308.563 172.38 301.954 178.99 301.954 187.143C301.954 195.296 308.563 201.905 316.716 201.905Z" fill="#F55F44"/>
<path d="M369.205 201.905C377.358 201.905 383.967 195.296 383.967 187.143C383.967 178.99 377.358 172.38 369.205 172.38C361.052 172.38 354.442 178.99 354.442 187.143C354.442 195.296 361.052 201.905 369.205 201.905Z" fill="#F55F44"/>
<path d="M341.321 192.064C357.627 192.064 370.845 178.845 370.845 162.539C370.845 146.233 357.627 133.015 341.321 133.015C325.015 133.015 311.796 146.233 311.796 162.539C311.796 178.845 325.015 192.064 341.321 192.064Z" fill="#F55F44"/>
<path d="M372.485 169.1C369.55 169.096 366.68 169.971 364.247 171.612C367.634 170.402 371.346 170.47 374.686 171.805C378.026 173.139 380.763 175.647 382.384 178.858C384.005 182.068 384.397 185.76 383.487 189.24C382.577 192.719 380.428 195.747 377.443 197.753C380.72 196.586 383.479 194.299 385.233 191.296C386.988 188.293 387.625 184.766 387.032 181.339C386.439 177.911 384.654 174.804 381.992 172.564C379.331 170.325 375.963 169.098 372.485 169.1V169.1Z" fill="#F55F44"/>
<path d="M346.241 128.094C339.388 128.083 332.746 130.467 327.464 134.833C333.926 131.398 341.433 130.485 348.529 132.271C355.626 134.058 361.806 138.416 365.871 144.502C369.936 150.587 371.596 157.965 370.529 165.205C369.463 172.445 365.745 179.03 360.097 183.684C365.915 180.593 370.531 175.645 373.211 169.627C375.892 163.609 376.483 156.867 374.889 150.475C373.296 144.083 369.61 138.407 364.419 134.352C359.228 130.296 352.829 128.093 346.241 128.094V128.094Z" fill="#F55F44"/>
<path d="M290.472 215.027C290.472 215.027 298.673 269.156 402.01 239.631L351.162 195.344L290.472 215.027Z" fill="#F55F44"/>
<path d="M116.985 525.012H74.5248C66.6287 525.012 60.2275 531.413 60.2275 539.31V540.951C60.2275 548.847 66.6287 555.248 74.5248 555.248H116.985C124.881 555.248 131.283 548.847 131.283 540.951V539.31C131.283 531.413 124.881 525.012 116.985 525.012Z" fill="#F9A826"/>
<g opacity="0.7">
<path opacity="0.7" d="M610.133 505.697V494.802H555.658V545.192C555.658 548.009 556.777 550.711 558.769 552.703C560.761 554.696 563.463 555.815 566.281 555.815H599.511C602.328 555.815 605.03 554.696 607.022 552.703C609.014 550.711 610.133 548.009 610.133 545.192V534.025C613.89 534.025 617.493 532.532 620.149 529.876C622.805 527.22 624.297 523.617 624.297 519.861C624.297 516.105 622.805 512.502 620.149 509.846C617.493 507.19 613.89 505.697 610.133 505.697V505.697ZM610.133 528.577V511.145C612.444 511.147 614.658 512.067 616.291 513.701C617.923 515.335 618.84 517.551 618.84 519.861C618.84 522.171 617.923 524.387 616.291 526.021C614.658 527.655 612.444 528.575 610.133 528.577V528.577Z" fill="url(#paint1_linear)"/>
</g>
<path d="M608.381 507.403C605.823 507.403 603.323 508.161 601.196 509.582C599.069 511.003 597.412 513.023 596.433 515.386C595.454 517.749 595.198 520.349 595.697 522.858C596.196 525.366 597.428 527.671 599.236 529.479C601.045 531.288 603.349 532.519 605.858 533.018C608.366 533.517 610.967 533.261 613.33 532.282C615.693 531.304 617.712 529.646 619.133 527.519C620.554 525.393 621.313 522.893 621.313 520.335C621.313 518.637 620.978 516.955 620.328 515.386C619.678 513.817 618.726 512.391 617.525 511.191C616.324 509.99 614.899 509.037 613.33 508.387C611.761 507.737 610.079 507.403 608.381 507.403ZM608.381 528.293C606.807 528.293 605.268 527.826 603.959 526.952C602.651 526.077 601.631 524.834 601.028 523.38C600.426 521.926 600.268 520.326 600.575 518.782C600.883 517.239 601.64 515.821 602.753 514.708C603.866 513.595 605.284 512.837 606.828 512.53C608.372 512.223 609.972 512.38 611.426 512.982C612.88 513.585 614.123 514.605 614.998 515.914C615.872 517.222 616.339 518.761 616.339 520.335C616.339 522.445 615.5 524.47 614.008 525.962C612.516 527.455 610.491 528.293 608.381 528.293Z" fill="#F9A826"/>
<path opacity="0.1" d="M608.381 507.403C605.823 507.403 603.323 508.161 601.196 509.582C599.069 511.003 597.412 513.023 596.433 515.386C595.454 517.749 595.198 520.349 595.697 522.858C596.196 525.366 597.428 527.671 599.236 529.479C601.045 531.288 603.349 532.519 605.858 533.018C608.366 533.517 610.967 533.261 613.33 532.282C615.693 531.304 617.712 529.646 619.133 527.519C620.554 525.393 621.313 522.893 621.313 520.335C621.313 518.637 620.978 516.955 620.328 515.386C619.678 513.817 618.726 512.391 617.525 511.191C616.324 509.99 614.899 509.037 613.33 508.387C611.761 507.737 610.079 507.403 608.381 507.403ZM608.381 528.293C606.807 528.293 605.268 527.826 603.959 526.952C602.651 526.077 601.631 524.834 601.028 523.38C600.426 521.926 600.268 520.326 600.575 518.782C600.883 517.239 601.64 515.821 602.753 514.708C603.866 513.595 605.284 512.837 606.828 512.53C608.372 512.223 609.972 512.38 611.426 512.982C612.88 513.585 614.123 514.605 614.998 515.914C615.872 517.222 616.339 518.761 616.339 520.335C616.339 522.445 615.5 524.47 614.008 525.962C612.516 527.455 610.491 528.293 608.381 528.293Z" fill="black"/>
<path d="M558.642 497.455H608.381V543.412C608.381 545.998 607.353 548.478 605.525 550.307C603.696 552.135 601.216 553.162 598.631 553.162H568.392C565.806 553.162 563.326 552.135 561.498 550.307C559.669 548.478 558.642 545.998 558.642 543.412V497.455Z" fill="#F9A826"/>
<path d="M660.606 553.162H15V575.047H660.606V553.162Z" fill="#E0E0E0"/>
<g opacity="0.7">
<path opacity="0.7" d="M460.582 395.061H215.025C207.017 395.061 200.525 401.553 200.525 409.561V538.662C200.525 546.67 207.017 553.162 215.025 553.162H460.582C468.59 553.162 475.082 546.67 475.082 538.662V409.561C475.082 401.553 468.59 395.061 460.582 395.061Z" fill="url(#paint2_linear)"/>
</g>
<path d="M443.272 397.978H232.334C217.513 397.978 205.499 409.992 205.499 424.813V526.327C205.499 541.148 217.513 553.162 232.334 553.162H443.272C458.093 553.162 470.108 541.148 470.108 526.327V424.813C470.108 409.992 458.093 397.978 443.272 397.978Z" fill="#535461"/>
<path d="M337.803 484.523C342.748 484.523 346.756 480.515 346.756 475.57C346.756 470.626 342.748 466.617 337.803 466.617C332.858 466.617 328.85 470.626 328.85 475.57C328.85 480.515 332.858 484.523 337.803 484.523Z" fill="white"/>
<path d="M633.25 575.047H42.356V584H633.25V575.047Z" fill="#E0E0E0"/>
<path opacity="0.1" d="M633.25 575.047H42.356V578.031H633.25V575.047Z" fill="black"/>
<path opacity="0.1" d="M599.428 497.455V543.463C599.428 546.036 598.406 548.502 596.587 550.321C594.768 552.14 592.301 553.162 589.729 553.162H594.703C597.275 553.162 599.742 552.14 601.561 550.321C603.38 548.502 604.402 546.036 604.402 543.463V497.455H599.428Z" fill="black"/>
<path d="M568.458 460.373C568.032 460.387 567.615 460.494 567.235 460.686C566.856 460.879 566.523 461.153 566.261 461.488C565.609 462.671 566.791 464.005 567.87 464.817C569.863 466.319 571.964 467.794 573.319 469.889C574.674 471.985 575.099 474.91 573.618 476.918C571.684 479.541 567.071 480.105 566.624 483.332C566.337 485.405 568.129 487.173 569.944 488.212C574.424 490.779 580.2 491.464 583.445 495.48C584.788 492.719 587.79 491.123 590.783 490.442C593.776 489.76 596.886 489.811 599.921 489.349C600.417 489.339 600.903 489.213 601.341 488.981C601.779 488.749 602.156 488.417 602.442 488.012C603.29 486.29 600.873 484.225 601.707 482.497C602.342 481.181 604.208 481.284 605.57 480.757C607.789 479.899 608.704 477.044 608.074 474.75C607.444 472.457 605.666 470.664 603.796 469.195C598.755 465.234 592.695 462.905 586.565 461.229C583.714 460.45 580.367 459.228 577.406 459.11C574.547 458.996 571.287 459.889 568.458 460.373Z" fill="#EEEEEE"/>
<path opacity="0.1" d="M877.844 10H443.368V307.668H877.844V10Z" fill="#535461"/>
<g opacity="0.5">
<path opacity="0.5" d="M580.759 39.3159H487.483C484.998 39.3159 482.983 41.3306 482.983 43.8159V129.178C482.983 131.663 484.998 133.678 487.483 133.678H580.759C583.245 133.678 585.259 131.663 585.259 129.178V43.8159C585.259 41.3306 583.245 39.3159 580.759 39.3159Z" fill="url(#paint3_linear)"/>
</g>
<path d="M579.648 40.0474H488.732C486.247 40.0474 484.232 42.0621 484.232 44.5474V127.621C484.232 130.107 486.247 132.121 488.732 132.121H579.648C582.134 132.121 584.148 130.107 584.148 127.621V44.5474C584.148 42.0621 582.134 40.0474 579.648 40.0474Z" fill="#F5F5F5"/>
<path d="M504.283 55.2129H496.432C493.947 55.2129 491.932 57.2276 491.932 59.7129V65.8783C491.932 68.3635 493.947 70.3783 496.432 70.3783H504.283C506.768 70.3783 508.783 68.3635 508.783 65.8783V59.7129C508.783 57.2276 506.768 55.2129 504.283 55.2129Z" fill="#F9A826"/>
<path d="M580.026 55.2129H514.634C514.194 55.2129 513.837 55.5696 513.837 56.0097V56.1012C513.837 56.5412 514.194 56.8979 514.634 56.8979H580.026C580.466 56.8979 580.823 56.5412 580.823 56.1012V56.0097C580.823 55.5696 580.466 55.2129 580.026 55.2129Z" fill="#E0E0E0"/>
<path d="M580.026 60.2681H514.634C514.194 60.2681 513.837 60.6248 513.837 61.0648V61.1563C513.837 61.5964 514.194 61.9531 514.634 61.9531H580.026C580.466 61.9531 580.823 61.5964 580.823 61.1563V61.0648C580.823 60.6248 580.466 60.2681 580.026 60.2681Z" fill="#E0E0E0"/>
<path d="M580.026 78.6162H491.044C490.604 78.6162 490.247 78.9729 490.247 79.413V79.5045C490.247 79.9445 490.604 80.3012 491.044 80.3012H580.026C580.466 80.3012 580.823 79.9445 580.823 79.5045V79.413C580.823 78.9729 580.466 78.6162 580.026 78.6162Z" fill="#E0E0E0"/>
<path d="M580.026 83.6714H491.044C490.604 83.6714 490.247 84.0281 490.247 84.4682V84.5596C490.247 84.9997 490.604 85.3564 491.044 85.3564H580.026C580.466 85.3564 580.823 84.9997 580.823 84.5596V84.4682C580.823 84.0281 580.466 83.6714 580.026 83.6714Z" fill="#E0E0E0"/>
<path d="M580.026 90.4116H491.044C490.604 90.4116 490.247 90.7683 490.247 91.2084V91.2999C490.247 91.7399 490.604 92.0967 491.044 92.0967H580.026C580.466 92.0967 580.823 91.7399 580.823 91.2999V91.2084C580.823 90.7683 580.466 90.4116 580.026 90.4116Z" fill="#E0E0E0"/>
<path d="M541.686 95.4663H491.044C490.604 95.4663 490.247 95.823 490.247 96.2631V96.3546C490.247 96.7946 490.604 97.1514 491.044 97.1514H541.686C542.127 97.1514 542.483 96.7946 542.483 96.3546V96.2631C542.483 95.823 542.127 95.4663 541.686 95.4663Z" fill="#E0E0E0"/>
<path d="M580.026 102.19H491.044C490.604 102.19 490.247 102.547 490.247 102.987V103.079C490.247 103.519 490.604 103.875 491.044 103.875H580.026C580.466 103.875 580.823 103.519 580.823 103.079V102.987C580.823 102.547 580.466 102.19 580.026 102.19Z" fill="#E0E0E0"/>
<path d="M580.026 107.246H491.044C490.604 107.246 490.247 107.602 490.247 108.042V108.134C490.247 108.574 490.604 108.931 491.044 108.931H580.026C580.466 108.931 580.823 108.574 580.823 108.134V108.042C580.823 107.602 580.466 107.246 580.026 107.246Z" fill="#E0E0E0"/>
<path d="M580.026 113.986H491.044C490.604 113.986 490.247 114.343 490.247 114.783V114.874C490.247 115.314 490.604 115.671 491.044 115.671H580.026C580.466 115.671 580.823 115.314 580.823 114.874V114.783C580.823 114.343 580.466 113.986 580.026 113.986Z" fill="#E0E0E0"/>
<path d="M541.686 119.041H491.044C490.604 119.041 490.247 119.397 490.247 119.837V119.929C490.247 120.369 490.604 120.726 491.044 120.726H541.686C542.127 120.726 542.483 120.369 542.483 119.929V119.837C542.483 119.397 542.127 119.041 541.686 119.041Z" fill="#E0E0E0"/>
<g opacity="0.5">
<path opacity="0.5" d="M596.195 61.1216H502.919C500.434 61.1216 498.419 63.1363 498.419 65.6216V150.984C498.419 153.469 500.434 155.484 502.919 155.484H596.195C598.68 155.484 600.695 153.469 600.695 150.984V65.6216C600.695 63.1363 598.68 61.1216 596.195 61.1216Z" fill="url(#paint4_linear)"/>
</g>
<path d="M595.084 61.853H504.167C501.682 61.853 499.667 63.8677 499.667 66.353V149.427C499.667 151.912 501.682 153.927 504.167 153.927H595.084C597.569 153.927 599.584 151.912 599.584 149.427V66.353C599.584 63.8677 597.569 61.853 595.084 61.853Z" fill="white"/>
<path d="M519.718 77.0186H511.867C509.382 77.0186 507.367 79.0333 507.367 81.5186V87.6839C507.367 90.1692 509.382 92.1839 511.867 92.1839H519.718C522.203 92.1839 524.218 90.1692 524.218 87.6839V81.5186C524.218 79.0333 522.203 77.0186 519.718 77.0186Z" fill="#F9A826"/>
<path d="M595.462 77.0186H530.07C529.63 77.0186 529.273 77.3753 529.273 77.8153V77.9068C529.273 78.3469 529.63 78.7036 530.07 78.7036H595.462C595.902 78.7036 596.258 78.3469 596.258 77.9068V77.8153C596.258 77.3753 595.902 77.0186 595.462 77.0186Z" fill="#E0E0E0"/>
<path d="M595.462 82.0732H530.07C529.63 82.0732 529.273 82.43 529.273 82.87V82.9615C529.273 83.4016 529.63 83.7583 530.07 83.7583H595.462C595.902 83.7583 596.258 83.4016 596.258 82.9615V82.87C596.258 82.43 595.902 82.0732 595.462 82.0732Z" fill="#E0E0E0"/>
<path d="M595.462 100.422H506.479C506.039 100.422 505.682 100.779 505.682 101.219V101.31C505.682 101.75 506.039 102.107 506.479 102.107H595.462C595.902 102.107 596.258 101.75 596.258 101.31V101.219C596.258 100.779 595.902 100.422 595.462 100.422Z" fill="#E0E0E0"/>
<path d="M595.462 105.477H506.479C506.039 105.477 505.682 105.833 505.682 106.273V106.365C505.682 106.805 506.039 107.162 506.479 107.162H595.462C595.902 107.162 596.258 106.805 596.258 106.365V106.273C596.258 105.833 595.902 105.477 595.462 105.477Z" fill="#E0E0E0"/>
<path d="M595.462 112.217H506.479C506.039 112.217 505.682 112.574 505.682 113.014V113.105C505.682 113.545 506.039 113.902 506.479 113.902H595.462C595.902 113.902 596.258 113.545 596.258 113.105V113.014C596.258 112.574 595.902 112.217 595.462 112.217Z" fill="#E0E0E0"/>
<path d="M557.122 117.272H506.479C506.039 117.272 505.682 117.629 505.682 118.069V118.16C505.682 118.6 506.039 118.957 506.479 118.957H557.122C557.562 118.957 557.919 118.6 557.919 118.16V118.069C557.919 117.629 557.562 117.272 557.122 117.272Z" fill="#E0E0E0"/>
<path d="M595.462 123.996H506.479C506.039 123.996 505.682 124.353 505.682 124.793V124.884C505.682 125.324 506.039 125.681 506.479 125.681H595.462C595.902 125.681 596.258 125.324 596.258 124.884V124.793C596.258 124.353 595.902 123.996 595.462 123.996Z" fill="#E0E0E0"/>
<path d="M595.462 129.051H506.479C506.039 129.051 505.682 129.408 505.682 129.848V129.939C505.682 130.379 506.039 130.736 506.479 130.736H595.462C595.902 130.736 596.258 130.379 596.258 129.939V129.848C596.258 129.408 595.902 129.051 595.462 129.051Z" fill="#E0E0E0"/>
<path d="M595.462 135.791H506.479C506.039 135.791 505.682 136.148 505.682 136.588V136.679C505.682 137.119 506.039 137.476 506.479 137.476H595.462C595.902 137.476 596.258 137.119 596.258 136.679V136.588C596.258 136.148 595.902 135.791 595.462 135.791Z" fill="#E0E0E0"/>
<path d="M557.122 140.846H506.479C506.039 140.846 505.682 141.203 505.682 141.643V141.734C505.682 142.175 506.039 142.531 506.479 142.531H557.122C557.562 142.531 557.919 142.175 557.919 141.734V141.643C557.919 141.203 557.562 140.846 557.122 140.846Z" fill="#E0E0E0"/>
<path d="M699.295 75.397H642.965V129.518H699.295V75.397Z" fill="url(#paint5_linear)"/>
<path d="M698.411 76.7222H643.848V128.414H698.411V76.7222Z" fill="#F5F5F5"/>
<g opacity="0.6">
<path opacity="0.6" d="M681.402 107.428H661.741V110.079H681.402V107.428Z" fill="#F9A826"/>
</g>
<path d="M687.918 112.288H654.341V114.938H687.918V112.288Z" fill="#BDBDBD"/>
<g opacity="0.5">
<path opacity="0.5" d="M847.931 28.0405H725.096V172.365H847.931V28.0405Z" fill="url(#paint6_linear)"/>
</g>
<path d="M845.318 30.3638H728.871V169.17H845.318V30.3638Z" fill="white"/>
<path d="M828.185 91.2637H746.295V94.7484H828.185V91.2637Z" fill="#E0E0E0"/>
<path d="M828.185 114.205H746.295V117.689H828.185V114.205Z" fill="#E0E0E0"/>
<path d="M828.185 120.303H746.295V123.787H828.185V120.303Z" fill="#E0E0E0"/>
<path d="M780.851 108.106H746.295V111.591H780.851V108.106Z" fill="#E0E0E0"/>
<path opacity="0.6" d="M828.185 108.106H802.34V111.591H828.185V108.106Z" fill="#3AD29F"/>
<path d="M800.888 134.532H775.043V138.016H800.888V134.532Z" fill="#F9A826"/>
<g opacity="0.5">
<path opacity="0.5" d="M726.412 212.956H653.426V272.903H726.412V212.956Z" fill="url(#paint7_linear)"/>
</g>
<path d="M725.42 214.089H654.277V271.911H725.42V214.089Z" fill="#F2F2F2"/>
<path d="M725.42 214.089H654.277V226.986H725.42V214.089Z" fill="#F9A826"/>
<path opacity="0.1" d="M725.42 214.089H654.277V226.986H725.42V214.089Z" fill="black"/>
<path d="M719.751 231.663H659.946V239.174H719.751V231.663Z" fill="#E0E0E0"/>
<path d="M703.595 244.843H659.946V247.394H703.595V244.843Z" fill="#E0E0E0"/>
<path d="M688.29 249.236H659.946V251.787H688.29V249.236Z" fill="#E0E0E0"/>
<path d="M697.36 253.629H659.946V256.18H697.36V253.629Z" fill="#E0E0E0"/>
<path d="M703.595 258.023H659.946V260.574H703.595V258.023Z" fill="#E0E0E0"/>
<path d="M674.543 262.416H659.946V264.967H674.543V262.416Z" fill="#E0E0E0"/>
<g opacity="0.5">
<path opacity="0.5" d="M698.191 190.968H607.727V265.272H698.191V190.968Z" fill="url(#paint8_linear)"/>
</g>
<path d="M696.961 192.374H608.78V264.042H696.961V192.374Z" fill="white"/>
<path d="M696.961 192.374H608.78V208.358H696.961V192.374Z" fill="#F9A826"/>
<path d="M689.935 214.155H615.807V223.465H689.935V214.155Z" fill="#F5F5F5"/>
<path d="M669.909 230.492H615.807V233.654H669.909V230.492Z" fill="#E0E0E0"/>
<path d="M650.938 235.937H615.807V239.099H650.938V235.937Z" fill="#E0E0E0"/>
<path d="M662.181 241.382H615.807V244.544H662.181V241.382Z" fill="#E0E0E0"/>
<path d="M669.909 246.828H615.807V249.989H669.909V246.828Z" fill="#E0E0E0"/>
<path d="M633.899 252.273H615.807V255.435H633.899V252.273Z" fill="#E0E0E0"/>
<path d="M640.75 217.317H619.671V220.127H640.75V217.317Z" fill="#69F0AE"/>
<path opacity="0.1" d="M484.373 388.286C491.119 388.286 496.587 382.818 496.587 376.072C496.587 369.326 491.119 363.858 484.373 363.858C477.627 363.858 472.159 369.326 472.159 376.072C472.159 382.818 477.627 388.286 484.373 388.286Z" fill="#535461"/>
<path opacity="0.1" d="M507.057 349.026C513.802 349.026 519.271 343.558 519.271 336.812C519.271 330.067 513.802 324.598 507.057 324.598C500.311 324.598 494.843 330.067 494.843 336.812C494.843 343.558 500.311 349.026 507.057 349.026Z" fill="#535461"/>
</g>
<defs>
<linearGradient id="paint0_linear" x1="338.236" y1="496.089" x2="338.236" y2="122.777" gradientUnits="userSpaceOnUse">
<stop stop-color="#808080" stop-opacity="0.25"/>
<stop offset="0.53514" stop-color="#808080" stop-opacity="0.12"/>
<stop offset="1" stop-color="#808080" stop-opacity="0.1"/>
</linearGradient>
<linearGradient id="paint1_linear" x1="51592.7" y1="43741.4" x2="51592.7" y2="40018.9" gradientUnits="userSpaceOnUse">
<stop stop-color="#808080" stop-opacity="0.25"/>
<stop offset="0.53514" stop-color="#808080" stop-opacity="0.12"/>
<stop offset="1" stop-color="#808080" stop-opacity="0.1"/>
</linearGradient>
<linearGradient id="paint2_linear" x1="88828.3" y1="86269.7" x2="88828.3" y2="61273.7" gradientUnits="userSpaceOnUse">
<stop stop-color="#808080" stop-opacity="0.25"/>
<stop offset="0.53514" stop-color="#808080" stop-opacity="0.12"/>
<stop offset="1" stop-color="#808080" stop-opacity="0.1"/>
</linearGradient>
<linearGradient id="paint3_linear" x1="53576.6" y1="11709.9" x2="53576.6" y2="2805.62" gradientUnits="userSpaceOnUse">
<stop stop-color="#808080" stop-opacity="0.25"/>
<stop offset="0.53514" stop-color="#808080" stop-opacity="0.12"/>
<stop offset="1" stop-color="#808080" stop-opacity="0.1"/>
</linearGradient>
<linearGradient id="paint4_linear" x1="55170.6" y1="13789.3" x2="55170.6" y2="4885.05" gradientUnits="userSpaceOnUse">
<stop stop-color="#808080" stop-opacity="0.25"/>
<stop offset="0.53514" stop-color="#808080" stop-opacity="0.12"/>
<stop offset="1" stop-color="#808080" stop-opacity="0.1"/>
</linearGradient>
<linearGradient id="paint5_linear" x1="37603.1" y1="6543.91" x2="37603.1" y2="3614.77" gradientUnits="userSpaceOnUse">
<stop stop-color="#808080" stop-opacity="0.25"/>
<stop offset="0.53514" stop-color="#808080" stop-opacity="0.12"/>
<stop offset="1" stop-color="#808080" stop-opacity="0.1"/>
</linearGradient>
<linearGradient id="paint6_linear" x1="95494.1" y1="23461.2" x2="95494.1" y2="2631.72" gradientUnits="userSpaceOnUse">
<stop stop-color="#808080" stop-opacity="0.25"/>
<stop offset="0.53514" stop-color="#808080" stop-opacity="0.12"/>
<stop offset="1" stop-color="#808080" stop-opacity="0.1"/>
</linearGradient>
<linearGradient id="paint7_linear" x1="49913.1" y1="15973.4" x2="49913.1" y2="12379.7" gradientUnits="userSpaceOnUse">
<stop stop-color="#808080" stop-opacity="0.25"/>
<stop offset="0.53514" stop-color="#808080" stop-opacity="0.12"/>
<stop offset="1" stop-color="#808080" stop-opacity="0.1"/>
</linearGradient>
<linearGradient id="paint8_linear" x1="58320.1" y1="19158.6" x2="58320.1" y2="13637.6" gradientUnits="userSpaceOnUse">
<stop stop-color="#808080" stop-opacity="0.25"/>
<stop offset="0.53514" stop-color="#808080" stop-opacity="0.12"/>
<stop offset="1" stop-color="#808080" stop-opacity="0.1"/>
</linearGradient>
<clipPath id="clip0">
<rect width="862.844" height="574" fill="white" transform="translate(15 10)"/>
</clipPath>
</defs>
</svg>
